C 394000000 6900000 NONE QAM64
C 770000000 6900000 NONE QAM64
C 746000000 6900000 NONE QAM64
C 450000000 6900000 NONE QAM256
C 458000000 6900000 NONE QAM256
C 466000000 6900000 NONE QAM256
C 762000000 6900000 NONE QAM64
C 818000000 6900000 NONE QAM64
C 834000000 6900000 NONE QAM64
C 842000000 6900000 NONE QAM64
C 850000000 6900000 NONE QAM64
C 858000000 6900000 NONE QAM64
C 698000000 6900000 NONE QAM64
C 706000000 6900000 NONE QAM64
C 714000000 6900000 NONE QAM64
C 722000000 6900000 NONE QAM64
C 730000000 6900000 NONE QAM64
C 754000000 6900000 NONE QAM256
C 778000000 6900000 NONE QAM64
C 786000000 6900000 NONE QAM64
C 810000000 6900000 NONE QAM64
C 738000000 6900000 NONE QAM64
C 826000000 6900000 NONE QAM64
C 666000000 6900000 NONE QAM256
C 674000000 6900000 NONE QAM256
C 682000000 6900000 NONE QAM256
C 530000000 6900000 NONE QAM256
C 658000000 6900000 NONE QAM256
C 794000000 6900000 NONE QAM64
C 610000000 6900000 NONE QAM256
